module gitlab.com/timbastin/xk6-simplegrpc

go 1.17

require (
	go.k6.io/k6 v0.33.0
	google.golang.org/grpc v1.40.0
	google.golang.org/protobuf v1.27.1
)

require (
	github.com/Azure/go-ntlmssp v0.0.0-20200615164410-66371956d46c // indirect
	github.com/PuerkitoBio/goquery v1.6.1 // indirect
	github.com/Soontao/goHttpDigestClient v0.0.0-20170320082612-6d28bb1415c5 // indirect
	github.com/andybalholm/brotli v1.0.2 // indirect
	github.com/andybalholm/cascadia v1.1.0 // indirect
	github.com/dlclark/regexp2 v1.4.1-0.20201116162257-a2a8dda75c91 // indirect
	github.com/dop251/goja v0.0.0-20210427212725-462d53687b0d // indirect
	github.com/fatih/color v1.11.0 // indirect
	github.com/ghodss/yaml v1.0.0 // indirect
	github.com/go-sourcemap/sourcemap v2.1.3+incompatible // indirect
	github.com/golang/protobuf v1.5.0 // indirect
	github.com/golang/snappy v0.0.3 // indirect
	github.com/gorilla/websocket v1.4.2 // indirect
	github.com/jhump/protoreflect v1.8.2 // indirect
	github.com/klauspost/compress v1.12.2 // indirect
	github.com/kubernetes/helm v2.9.0+incompatible // indirect
	github.com/mailru/easyjson v0.7.7 // indirect
	github.com/mattn/go-colorable v0.1.8 // indirect
	github.com/mattn/go-isatty v0.0.12 // indirect
	github.com/nu7hatch/gouuid v0.0.0-20131221200532-179d4d0c4d8d // indirect
	github.com/oxtoacart/bpool v0.0.0-20190530202638-03653db5a59c // indirect
	github.com/serenize/snaker v0.0.0-20201027110005-a7ad2135616e // indirect
	github.com/sirupsen/logrus v1.8.1 // indirect
	github.com/spf13/afero v1.1.2 // indirect
	github.com/tidwall/gjson v1.8.0 // indirect
	github.com/tidwall/match v1.0.3 // indirect
	github.com/tidwall/pretty v1.1.0 // indirect
	golang.org/x/crypto v0.0.0-20201016220609-9e8e0b390897 // indirect
	golang.org/x/net v0.0.0-20210428185458-6f5299370f2b // indirect
	golang.org/x/sys v0.0.0-20201204225414-ed752295db88 // indirect
	golang.org/x/text v0.3.6 // indirect
	golang.org/x/time v0.0.0-20210220033141-f8bda1e9f3ba // indirect
	google.golang.org/genproto v0.0.0-20200903010400-9bfcb5116336 // indirect
	gopkg.in/guregu/null.v3 v3.3.0 // indirect
	gopkg.in/yaml.v2 v2.4.0 // indirect
)
